<?xml version="1.0" encoding="UTF-8" standalone="no"?>
<!-- Created with Inkscape (http://www.inkscape.org/) -->

<svg
   xmlns:dc="http://purl.org/dc/elements/1.1/"
   xmlns:cc="http://creativecommons.org/ns#"
   xmlns:rdf="http://www.w3.org/1999/02/22-rdf-syntax-ns#"
   xmlns:svg="http://www.w3.org/2000/svg"
   xmlns="http://www.w3.org/2000/svg"
   xmlns:sodipodi="http://sodipodi.sourceforge.net/DTD/sodipodi-0.dtd"
   xmlns:inkscape="http://www.inkscape.org/namespaces/inkscape"
   width="210mm"
   height="297mm"
   viewBox="0 0 744.09448819 1052.3622047"
   id="svg2"
   version="1.1"
   inkscape:version="0.91 r13725"
   sodipodi:docname="logo.svg">
  <defs
     id="defs4">
    <inkscape:perspective
       sodipodi:type="inkscape:persp3d"
       inkscape:vp_x="207.49023 : 719.90219 : 1"
       inkscape:vp_y="0 : 862.37304 : 0"
       inkscape:vp_z="629.10214 : 536.20772 : 1"
       inkscape:persp3d-origin="356.49209 : 384.95293 : 1"
       id="perspective3336" />
  </defs>
  <sodipodi:namedview
     id="base"
     pagecolor="#ffffff"
     bordercolor="#666666"
     borderopacity="1.0"
     inkscape:pageopacity="0.0"
     inkscape:pageshadow="2"
     inkscape:zoom="0.98994949"
     inkscape:cx="162.16323"
     inkscape:cy="814.77298"
     inkscape:document-units="px"
     inkscape:current-layer="layer1"
     showgrid="false"
     inkscape:window-width="1317"
     inkscape:window-height="744"
     inkscape:window-x="49"
     inkscape:window-y="24"
     inkscape:window-maximized="1" />
  <metadata
     id="metadata7">
    <rdf:RDF>
      <cc:Work
         rdf:about="">
        <dc:format>image/svg+xml</dc:format>
        <dc:type
           rdf:resource="http://purl.org/dc/dcmitype/StillImage" />
        <dc:title></dc:title>
      </cc:Work>
    </rdf:RDF>
  </metadata>
  <g
     inkscape:label="Layer 1"
     inkscape:groupmode="layer"
     id="layer1">
    <g
       sodipodi:type="inkscape:box3d"
       id="g3380"
       style="fill:none;fill-rule:evenodd;stroke:none;stroke-width:1px;stroke-linecap:butt;stroke-linejoin:round;stroke-opacity:1"
       inkscape:perspectiveID="#perspective3336"
       inkscape:corner0="1.2988251 : 0.64591308 : 0 : 1"
       inkscape:corner7="0.91453163 : 0.34367771 : 0.28942702 : 1">
      <path
         sodipodi:type="inkscape:box3dside"
         id="path3392"
         style="fill:#e9e9ff;fill-rule:evenodd;stroke:none;stroke-width:1px;stroke-linecap:butt;stroke-linejoin:round;stroke-opacity:1"
         inkscape:box3dsidetype="11"
         d="m 312.20481,267.20262 18.25857,-11.37861 0,118.25976 -18.25857,-6.18013 z"
         points="330.46338,255.82401 330.46338,374.08377 312.20481,367.90364 312.20481,267.20262 " />
      <path
         sodipodi:type="inkscape:box3dside"
         id="path3382"
         style="fill:#353564;fill-rule:evenodd;stroke:none;stroke-width:1px;stroke-linecap:butt;stroke-linejoin:round;stroke-opacity:1"
         inkscape:box3dsidetype="6"
         d="m 272.30676,235.85905 0,113.37949 39.89805,18.6651 0,-100.70102 z"
         points="272.30676,349.23854 312.20481,367.90364 312.20481,267.20262 272.30676,235.85905 " />
      <path
         sodipodi:type="inkscape:box3dside"
         id="path3384"
         style="fill:#4d4d9f;fill-rule:evenodd;stroke:none;stroke-width:1px;stroke-linecap:butt;stroke-linejoin:round;stroke-opacity:1"
         inkscape:box3dsidetype="5"
         d="m 272.30676,235.85905 13.01026,-19.39019 45.14636,39.35515 -18.25857,11.37861 z"
         points="285.31702,216.46886 330.46338,255.82401 312.20481,267.20262 272.30676,235.85905 " />
      <path
         sodipodi:type="inkscape:box3dside"
         id="path3390"
         style="fill:#afafde;fill-rule:evenodd;stroke:none;stroke-width:1px;stroke-linecap:butt;stroke-linejoin:round;stroke-opacity:1"
         inkscape:box3dsidetype="13"
         d="m 272.30676,349.23854 13.01026,3.36786 45.14636,21.47737 -18.25857,-6.18013 z"
         points="285.31702,352.6064 330.46338,374.08377 312.20481,367.90364 272.30676,349.23854 " />
      <path
         sodipodi:type="inkscape:box3dside"
         id="path3388"
         style="fill:#d7d7ff;fill-rule:evenodd;stroke:none;stroke-width:1px;stroke-linecap:butt;stroke-linejoin:round;stroke-opacity:1"
         inkscape:box3dsidetype="14"
         d="m 285.31702,216.46886 0,136.13754 45.14636,21.47737 0,-118.25976 z"
         points="285.31702,352.6064 330.46338,374.08377 330.46338,255.82401 285.31702,216.46886 " />
      <path
         sodipodi:type="inkscape:box3dside"
         id="path3386"
         style="fill:#8686bf;fill-rule:evenodd;stroke:none;stroke-width:1px;stroke-linecap:butt;stroke-linejoin:round;stroke-opacity:1"
         inkscape:box3dsidetype="3"
         d="m 272.30676,235.85905 13.01026,-19.39019 0,136.13754 -13.01026,-3.36786 z"
         points="285.31702,216.46886 285.31702,352.6064 272.30676,349.23854 272.30676,235.85905 " />
    </g>
    <ellipse
       style="fill:#43808f;fill-opacity:1;fill-rule:evenodd;stroke:#000000;stroke-width:1px;stroke-linecap:butt;stroke-linejoin:miter;stroke-opacity:0.17610061"
       id="path3394"
       cx="308.09653"
       cy="273.53461"
       rx="8.0812206"
       ry="13.131983" />
  </g>
</svg>
